<svg id="Layer_1" data-name="Layer 1" xmlns="http://www.w3.org/2000/svg" viewBox="0 0 264.39 141.83" width="173" height="132">
	<defs>
		<style>.cls-1{fill:transparent;}</style>
    <filter x="-6.3%" y="-5.5%" width="112.6%" height="112%" filterUnits="objectBoundingBox" id="filter-bh-svg">
      <feOffset dy="2" in="SourceAlpha" result="shadowOffsetOuter1"/>
      <feGaussianBlur stdDeviation="7.5" in="shadowOffsetOuter1" result="shadowBlurOuter1"/>
      <feColorMatrix values="0 0 0 0 0 0 0 0 0 0 0 0 0 0 0 0 0 0 0.168110281 0" in="shadowBlurOuter1" result="shadowMatrixOuter1"/>
      <feMerge>
        <feMergeNode in="shadowMatrixOuter1"/>
        <feMergeNode in="SourceGraphic"/>
      </feMerge>
    </filter>
	</defs>
	<title>Uber_logo_ace-01</title>
	<g fill-rule="evenodd" fill="#FFF" id="Uber" class="experience-brand uber">

		<g id="Partner" class="uber__partner">
		<path d="M268.15,432.07v32.28h-9.59V379.91a4.44,4.44,0,0,1,3.28.5c8.74,5.31,17.54,10.52,26.26,15.84,5,3,8.92,7.09,9.54,13.1.7,6.66-.73,13-5.21,18.27a13,13,0,0,1-8.55,4.39c-.38.05-.76.12-1.27.21l15.25,32.22H295.1c-2.6,0-5.2-.05-7.8,0a1.83,1.83,0,0,1-2-1.29c-4.32-9.78-8.72-19.54-13.09-29.3C271.17,431.67,270.77,431.48,268.15,432.07ZM268,396.36v23.79c0,1.67,0,1.77,1.73,1.71,3.67-.14,7.34-.47,11-.57,2.47-.08,4.19-1.41,5.73-3.06a6.3,6.3,0,0,0,.78-8.24,14.62,14.62,0,0,0-4.76-4.82c-4.45-2.76-8.92-5.48-13.38-8.22C268.77,396.77,268.46,396.63,268,396.36Z" transform="translate(-174.44 -322.66)"/>
		<path d="M351,446.3v-1.4q0-29.26,0-58.54a2.13,2.13,0,0,1,1.29-2.24c1.32-.66,2.54-1.52,3.84-2.21a11,11,0,0,1,2-.56v82.52c-2.4,0-4.75,0-7.1,0-.27,0-.62-.45-.78-.76q-7.2-14.47-14.39-29-4.47-9-9-18a6.31,6.31,0,0,0-.44-.64c.21,16.3.41,32.28.62,48.34H319.7c0-.45-.05-.87-.05-1.29q0-29.7,0-59.39a1.82,1.82,0,0,1,1.06-1.88c1.89-1,3.72-2.18,5.74-3.38l24.3,48.46Z" transform="translate(-174.44 -322.66)"/>
		<path d="M341.8,379.83l-31.72-16.1v1.35q0,12.82,0,25.67.09,24.12.2,48.23c0,7.84.06,15.68.14,23.52,0,1.08-.27,1.45-1.4,1.4-2.15-.09-4.31,0-6.6,0V363.68l-31.22,16.16c0-2.32.13-4.42,0-6.5-.14-1.68.48-2.5,1.95-3.29,10.59-5.68,21.13-11.47,31.67-17.25a1.91,1.91,0,0,1,2.07-.05q17,9,34,17.89a1.41,1.41,0,0,1,.88,1.48C341.76,374.6,341.8,377.08,341.8,379.83Z" transform="translate(-174.44 -322.66)"/>
		<path d="M224.4,442.19c-1,4.81-2.06,9.81-3.12,14.81-.45,2.15-.89,4.3-1.39,6.44-.08.32-.49.79-.76.79-2.63.06-5.26,0-8.08,0,.42-2.12.8-4.1,1.2-6.07q4.88-23.82,9.76-47.63c.9-4.42,1.8-8.84,2.73-13.26a2,2,0,0,1,.7-1.25c3.6-1.88,7.23-3.69,11-5.6,5.25,24.62,10.46,49.11,15.72,73.81h-6.63c-2.09,0-2.1,0-2.58-2-1.47-6.3-2.94-12.6-4.36-18.9-.2-.88-.52-1.16-1.42-1.15C233,442.22,228.8,442.19,224.4,442.19Zm.75-7.82h12.52c-2.13-9.67-4.24-19.25-6.34-28.82h-.2C229.14,415.13,227.15,424.71,225.15,434.37Z" transform="translate(-174.44 -322.66)"/>
		<path d="M400.76,404.26a12.12,12.12,0,0,1,2.55.67c6.86,3.67,13.74,7.33,20.52,11.14a22,22,0,0,1,5,3.87c3.67,3.79,3.32,8.33,1.87,12.9-1.67,5.26-5.24,8.27-11,8.76,4,7.61,7.94,15.1,12,22.84h-3.23c-1.56,0-3.13-.09-4.68,0a2,2,0,0,1-2.26-1.37c-3.26-6.67-6.59-13.31-9.89-20-.95-1.91-.95-1.9-3.28-1.72v22.92h-7.58Zm7.52,11.93V434.4c3.43-.19,6.76-.38,10.09-.55a6.74,6.74,0,0,0,4.61-2.48,3.76,3.76,0,0,0,.6-4.93,10.72,10.72,0,0,0-3.06-3.29C416.59,420.74,412.51,418.57,408.28,416.19Z" transform="translate(-174.44 -322.66)"/>
		<path d="M391.61,456.77v7H366.08V385.07c.38.2.72.36,1.05.54q11.79,6.67,23.58,13.32a1.63,1.63,0,0,1,1,1.66c-.07,2.11,0,4.23,0,6.61l-18.25-10.1v36.83h18.16v7.21H373.64v15.63Z" transform="translate(-174.44 -322.66)"/>
		<path d="M188.93,442.44V463.8h-6.26c0-.42-.06-.81-.06-1.2,0-13.35,0-26.7-.08-40.05a2,2,0,0,1,1.29-2.09c4.08-2.1,8-4.43,12.17-6.43a16.9,16.9,0,0,1,13.26-.93,9,9,0,0,1,5.72,6.2,20.79,20.79,0,0,1,.17,12.05c-1.63,5.66-5.87,8.53-11.26,10a39,39,0,0,1-13.19,1.06l-1.31-.08A1.54,1.54,0,0,0,188.93,442.44Zm-.4-7.63c4.47.71,8.6,1,12.66-.28,5.2-1.6,6.72-5.56,5.39-10.57a4.78,4.78,0,0,0-3.55-3.42,10.12,10.12,0,0,0-6.8.43c-2.42,1-4.73,2.31-7.07,3.51-.27.14-.6.49-.6.75C188.52,428.42,188.53,431.6,188.53,434.81Z" transform="translate(-174.44 -322.66)"/>
		</g>


	<g id="Partner" class="uber__partner">
		<path d="M206.86,362.89c4.69-2.08,8.64-5.52,13.8-6.37,4.9-.81,9.17,3.71,7.82,8.25a20,20,0,0,1-.91,2.07c5.17-.12,8.5,3.18,8.1,8.08a7.54,7.54,0,0,1-3.22,5.4,35.6,35.6,0,0,1-4.24,2.67c-2.63,1.49-5.31,2.9-8,4.38ZM223,380.73a1.63,1.63,0,0,0,.31-.07c1.23-.66,2.48-1.27,3.68-2a11.83,11.83,0,0,0,2.38-1.76c1.09-1.11,1.09-2.49.21-4.08s-2.35-2.71-3.72-2.18c-2.27.86-4.41,2.06-6.65,3.14Zm-5.55-10.19a56.41,56.41,0,0,0,5-3.13,3,3,0,0,0,.79-4.16,3.09,3.09,0,0,0-4-1.72,57.66,57.66,0,0,0-5.29,2.51Z" transform="translate(-174.44 -322.66)"/>
		<path d="M298.51,344.7c-1.93,1.05-3.51,2-5.17,2.74-.36.16-1.19-.25-1.52-.63a25.24,25.24,0,0,1-2.09-2.91c-.43-.67-.74-1.42-1.18-2.09a3.74,3.74,0,0,0-5.09-1.49c-.29.13-.56.29-.85.44L278.42,343l5.27,9.72-4.95,2.7q-6.63-12.18-13.23-24.32a1.88,1.88,0,0,1,.37-.34c3.23-1.75,6.45-3.52,9.7-5.22a10.79,10.79,0,0,1,6.13-1.3c4.68.43,8.59,6.2,5.49,10.86a6.33,6.33,0,0,0-.38.69c4.22-.62,6.15,1.95,7.72,5.08A6.71,6.71,0,0,0,298.51,344.7Zm-22.15-5.44c1.91-1.15,3.83-2.14,5.57-3.37,1.51-1.08,1.7-2.67.85-4.38s-2.55-2.88-4.24-2.26c-2.07.76-4,1.85-6.09,2.83Z" transform="translate(-174.44 -322.66)"/>
		<path d="M174.44,380.63l5-2.71c.69,1.24,1.34,2.42,2,3.61,2.23,4.1,4.48,8.2,6.69,12.31,1,1.83,2.27,3.35,4.49,3.27a6.62,6.62,0,0,0,5.59-3.22c1.07-1.73.59-3.46-.31-5.12q-4-7.31-8-14.63c-.25-.45-.48-.91-.79-1.49l4.93-2.69c.5.91,1,1.77,1.46,2.63,2.41,4.42,4.83,8.83,7.21,13.26,2.67,5,1.66,9.5-2.88,12.87a13.74,13.74,0,0,1-9.34,3.11,7.79,7.79,0,0,1-6.52-3.92C180.72,392.24,177.65,386.46,174.44,380.63Z" transform="translate(-174.44 -322.66)"/>
		<path d="M253.53,364.26l11.77-6.39,2.11,3.83-16.75,9.12c-4.44-8.16-8.84-16.25-13.28-24.43l16.7-9.09,2.09,3.85-11.73,6.4,3.27,6,10.09-5.46,2.09,3.83-10.08,5.5C251.06,359.75,252.28,362,253.53,364.26Z" transform="translate(-174.44 -322.66)"/>
		

		<path d="M346.09,351.3l-4.91,9-4.57-2.5,12.27-22.55c2.14,1.16,4.27,2.24,6.32,3.44a36.82,36.82,0,0,1,5.21,3.37,6.84,6.84,0,0,1,1.88,8.34,5.85,5.85,0,0,1-5.27,3.72l-1.12.1c2.49,2.86,1.6,5.59,0,8.36-1.21,2.11-1.27,2.52-1.24,5.06-1.65-.92-3.23-1.7-4.66-2.69-.3-.21-.24-1.25,0-1.79a26.34,26.34,0,0,1,1.63-3.59c1.6-3,1.15-4.64-1.85-6.27C348.58,352.64,347.39,352,346.09,351.3Zm1.92-3.55c1.6.85,3,1.7,4.55,2.41,2.13,1,3.72.46,4.76-1.46a3.44,3.44,0,0,0-1.33-4.95c-1.4-.89-2.91-1.63-4.45-2.47Z" transform="translate(-174.44 -322.66)"/>
		<path d="M431.84,395.6c2.3,2.67,1.6,5.35,0,8a7,7,0,0,0-1.18,5.34c-1.77-1-3.31-1.75-4.75-2.69-.27-.17-.33-1-.19-1.43a29.76,29.76,0,0,1,1.69-3.94c1.66-3.17,1.23-4.69-1.94-6.42l-3.54-1.93-4.91,9-4.57-2.48,12.33-22.67c3.64,2.11,7.36,4,10.75,6.33a6.87,6.87,0,0,1,2.48,9.17,5.71,5.71,0,0,1-4.93,3.46l-1.07.11S432,395.52,431.84,395.6Zm-4.46-13.05-3.56,6.54c1.87.92,3.6,1.89,5.44,2.63a2.82,2.82,0,0,0,3.56-1.19,3.54,3.54,0,0,0-.95-5.47C430.47,384.16,429,383.42,427.38,382.55Z" transform="translate(-174.44 -322.66)"/>
		<path d="M313.8,345.32l12.34-22.66a108,108,0,0,1,9.7,5.74c4,2.9,4.88,8.09,2.64,12.62-.79,1.61-1.66,3.19-2.57,4.74a10.18,10.18,0,0,1-13.7,4.09C319.4,348.45,316.67,346.88,313.8,345.32Zm14.93-16.52-8.4,15.44c.94.52,1.8,1,2.67,1.48,3.06,1.64,5.9,1.07,7.84-1.82a38.49,38.49,0,0,0,3.31-6.08c1.38-3.17.3-5.88-2.73-7.57Z" transform="translate(-174.44 -322.66)"/>
		<path d="M402.49,380.88c-1.17,2.15-2.29,4.21-3.44,6.34l10.86,5.93L408,396.69l-15.45-8.41c4.09-7.53,8.15-15,12.27-22.57l15.43,8.39-1.92,3.55-10.85-5.88-3,5.53,9.29,5.09-1.92,3.54Z" transform="translate(-174.44 -322.66)"/>
		<path d="M395.83,360.84l4.89,2.66c-6.7,6.18-13.32,12.28-19.94,18.4-1.44-.78-2.82-1.49-4.16-2.28a1.12,1.12,0,0,1-.38-.93c1.46-8.61,2.95-17.22,4.48-26.05,1.58.86,3.08,1.63,4.53,2.5.18.11.15.73.08,1.09-1.36,6.39-2.75,12.78-4.15,19.26Z" transform="translate(-174.44 -322.66)"/>
		<path d="M364.26,372.68l-4.57-2.49L372,347.62l4.58,2.5Z" transform="translate(-174.44 -322.66)"/>
		
	

		<path class="cls-1" d="M268,396.36c.5.27.81.41,1.11.59,4.46,2.74,8.93,5.46,13.38,8.22a14.62,14.62,0,0,1,4.76,4.82,6.3,6.3,0,0,1-.78,8.24c-1.54,1.65-3.26,3-5.73,3.06-3.67.1-7.34.43-11,.57-1.72.06-1.73,0-1.73-1.71V396.36Z" transform="translate(-174.44 -322.66)"/>
		<path class="cls-1" d="M225.15,434.37c2-9.66,4-19.24,6-28.83h.2c2.1,9.57,4.21,19.15,6.34,28.82Z" transform="translate(-174.44 -322.66)"/>
		<path class="cls-1" d="M408.28,416.19c4.23,2.38,8.31,4.55,12.24,7a10.72,10.72,0,0,1,3.06,3.29,3.76,3.76,0,0,1-.6,4.93,6.74,6.74,0,0,1-4.61,2.48c-3.33.17-6.66.36-10.09.55Z" transform="translate(-174.44 -322.66)"/>
		<path class="cls-1" d="M188.53,434.81c0-3.21,0-6.39,0-9.58,0-.26.33-.61.6-.75,2.34-1.2,4.65-2.48,7.07-3.51a10.12,10.12,0,0,1,6.8-.43,4.78,4.78,0,0,1,3.55,3.42c1.33,5-.19,9-5.39,10.57C197.13,435.78,193,435.52,188.53,434.81Z" transform="translate(-174.44 -322.66)"/>
		<path class="cls-1" d="M223,380.73l-3.79-6.94c2.24-1.08,4.38-2.28,6.65-3.14,1.37-.53,2.79.5,3.72,2.18s.88,3-.21,4.08a11.83,11.83,0,0,1-2.38,1.76c-1.2.72-2.45,1.33-3.68,2A1.63,1.63,0,0,1,223,380.73Z" transform="translate(-174.44 -322.66)"/>
		<path class="cls-1" d="M217.45,370.54l-3.54-6.5a57.66,57.66,0,0,1,5.29-2.51,3.09,3.09,0,0,1,4,1.72,3,3,0,0,1-.79,4.16A56.41,56.41,0,0,1,217.45,370.54Z" transform="translate(-174.44 -322.66)"/>
		<path class="cls-1" d="M276.36,339.26l-3.91-7.18c2.07-1,4-2.07,6.09-2.83,1.69-.62,3.31.41,4.24,2.26s.66,3.3-.85,4.38C280.19,337.12,278.27,338.11,276.36,339.26Z" transform="translate(-174.44 -322.66)"/>
		<path class="cls-1" d="M348,347.75l3.53-6.47c1.54.84,3,1.58,4.45,2.47a3.44,3.44,0,0,1,1.33,4.95c-1,1.92-2.63,2.45-4.76,1.46C351.05,349.45,349.61,348.6,348,347.75Z" transform="translate(-174.44 -322.66)"/>
		<path class="cls-1" d="M427.38,382.55c1.58.87,3.09,1.61,4.49,2.51a3.54,3.54,0,0,1,.95,5.47,2.82,2.82,0,0,1-3.56,1.19c-1.84-.74-3.57-1.71-5.44-2.63Z" transform="translate(-174.44 -322.66)"/>
		<path class="cls-1" d="M328.73,328.8l2.69,1.45c3,1.69,4.11,4.4,2.73,7.57a38.49,38.49,0,0,1-3.31,6.08c-1.94,2.89-4.78,3.46-7.84,1.82-.87-.47-1.73-1-2.67-1.48Z" transform="translate(-174.44 -322.66)"/>
	</g>
	</g>
</svg>