<svg xmlns="http://www.w3.org/2000/svg" width="82" height="82" viewBox="0 0 82 82">
    <defs>
        <filter id="a" width="160%" height="160%" x="-30.8%" y="-25.8%" filterUnits="objectBoundingBox">
            <feOffset dy="2" in="SourceAlpha" result="shadowOffsetOuter1"/>
            <feGaussianBlur in="shadowOffsetOuter1" result="shadowBlurOuter1" stdDeviation="5.5"/>
            <feColorMatrix in="shadowBlurOuter1" result="shadowMatrixOuter1" values="0 0 0 0 0 0 0 0 0 0 0 0 0 0 0 0 0 0 0.5 0"/>
            <feMerge>
                <feMergeNode in="shadowMatrixOuter1"/>
                <feMergeNode in="SourceGraphic"/>
            </feMerge>
        </filter>
        <path id="b" d="M0 60h59.784V.217H0V60 .217h59.784V60H0z"/>
        <path id="c" d="M.799.217h31.098V60H.799z"/>
        <path id="d" d="M0 45.569V.217h59.784V60H0V45.569h59.784V14.648H0v30.92z"/>
    </defs>
    <g fill="none" fill-rule="evenodd" filter="url(#a)" transform="translate(11 9)">
        <path fill="#FEFEFE" d="M30 1.825C14.465 1.825 1.825 14.465 1.825 30c0 15.536 12.64 28.175 28.175 28.175S58.175 45.535 58.175 30c0-15.536-12.64-28.175-28.175-28.175M30 60C13.458 60 0 46.542 0 30S13.458 0 30 0s30 13.458 30 30-13.458 30-30 30"/>
        <path fill="#FEFEFE" d="M30.5 1.825c-7.54 0-13.677 12.64-13.677 28.175 0 15.536 6.136 28.175 13.677 28.175 7.542 0 13.677-12.64 13.677-28.175 0-15.536-6.135-28.175-13.677-28.175M30.5 60C21.81 60 15 46.822 15 30S21.81 0 30.5 0C39.192 0 46 13.178 46 30s-6.808 30-15.5 30"/>
        <path fill="#FEFEFE" d="M30 16.823c-15.535 0-28.175 6.135-28.175 13.677S14.465 44.177 30 44.177 58.175 38.042 58.175 30.5 45.535 16.823 30 16.823M30 46C13.178 46 0 39.192 0 30.5S13.178 15 30 15s30 6.808 30 15.5S46.822 46 30 46"/>
        <path fill="#FEFEFE" d="M23.61 28.98h.745c.218 0 .406-.024.564-.076.16-.052.291-.122.399-.213.107-.09.186-.2.238-.327.052-.128.078-.27.078-.427 0-.324-.094-.575-.282-.755-.188-.179-.476-.27-.862-.27-.166 0-.32.023-.461.068-.142.046-.264.11-.367.192a.869.869 0 0 0-.332.695h-1.258c0-.267.06-.516.18-.743a1.81 1.81 0 0 1 .496-.592 2.38 2.38 0 0 1 .76-.39c.296-.094.618-.142.967-.142.358 0 .687.042.984.124.296.083.55.206.762.368.213.162.377.364.495.606.117.242.176.521.176.84 0 .137-.024.275-.072.416-.05.14-.121.276-.218.404-.098.13-.218.252-.362.366a2.12 2.12 0 0 1-.507.288c.23.072.427.163.587.274.16.11.291.235.39.374.1.138.174.287.22.447.047.158.07.322.07.49 0 .319-.063.603-.191.852-.128.25-.305.46-.53.63-.227.17-.493.3-.803.388-.309.089-.643.133-1.001.133-.328 0-.642-.04-.94-.122a2.488 2.488 0 0 1-.79-.362 1.82 1.82 0 0 1-.544-.601 1.676 1.676 0 0 1-.201-.833h1.257c0 .15.03.287.088.412.06.125.143.23.25.32.106.09.236.158.387.206.152.048.321.073.508.073.39 0 .696-.094.922-.28.223-.188.336-.46.336-.815 0-.194-.033-.36-.099-.5a.932.932 0 0 0-.28-.35 1.194 1.194 0 0 0-.437-.203 2.307 2.307 0 0 0-.577-.066h-.745v-.898zM29.53 29.28c-.146 0-.285.02-.418.06a1.5 1.5 0 0 0-.363.167 1.269 1.269 0 0 0-.482.548v.353c0 .274.034.516.102.725.067.21.159.382.273.522a1.142 1.142 0 0 0 .889.42c.19 0 .36-.034.512-.102.15-.068.278-.163.384-.286.106-.122.187-.269.242-.438.055-.17.084-.358.084-.563 0-.191-.027-.372-.078-.542a1.318 1.318 0 0 0-.233-.447 1.103 1.103 0 0 0-.382-.303 1.177 1.177 0 0 0-.53-.114zM30.888 26v.948h-.088c-.413 0-.769.052-1.068.156a2.21 2.21 0 0 0-.754.425c-.203.18-.36.39-.47.63-.112.241-.184.496-.219.767a1.95 1.95 0 0 1 .686-.424c.264-.098.554-.147.869-.147.367 0 .687.064.959.191.271.128.496.299.672.512.177.215.309.46.396.737.086.277.13.563.13.859 0 .33-.055.638-.164.922-.11.285-.27.533-.479.744-.21.21-.467.376-.771.498-.306.121-.652.182-1.04.182-.412 0-.776-.074-1.092-.22a2.372 2.372 0 0 1-.797-.592 2.546 2.546 0 0 1-.49-.86A3.106 3.106 0 0 1 27 30.305v-.449c0-.34.028-.67.085-.993.057-.323.148-.627.273-.911.124-.286.286-.547.484-.787.197-.239.434-.445.712-.618.277-.173.596-.308.958-.403a4.804 4.804 0 0 1 1.23-.144h.145zM36.725 28.766c0-.346-.026-.638-.08-.873a1.595 1.595 0 0 0-.24-.571.91.91 0 0 0-.385-.314 1.34 1.34 0 0 0-.523-.095c-.195 0-.37.031-.52.095a.904.904 0 0 0-.387.314 1.577 1.577 0 0 0-.24.571c-.053.235-.08.527-.08.873v1.436c0 .343.028.634.084.875.056.24.136.435.242.585.104.15.234.258.387.328.155.068.33.103.526.103.199 0 .373-.035.523-.103a.928.928 0 0 0 .38-.328c.104-.15.182-.344.235-.585a4.17 4.17 0 0 0 .078-.875v-1.436zM38 30.038c0 .54-.06.998-.178 1.373-.119.377-.287.682-.504.918a1.894 1.894 0 0 1-.784.511 3.11 3.11 0 0 1-1.025.16c-.375 0-.716-.053-1.024-.16a1.928 1.928 0 0 1-.792-.511 2.376 2.376 0 0 1-.511-.918c-.121-.375-.182-.833-.182-1.373v-1.1c0-.54.06-.996.179-1.37.119-.375.288-.678.506-.91.22-.233.482-.4.789-.503.308-.104.65-.155 1.023-.155.378 0 .72.051 1.029.155.307.103.57.27.789.503.22.232.388.535.507.91.118.374.178.83.178 1.37v1.1zM38.497 26.007a.53.53 0 0 0 .3.496c.061.032.13.047.205.047a.473.473 0 0 0 .366-.163.514.514 0 0 0 .103-.172.594.594 0 0 0-.103-.59.47.47 0 0 0-.366-.165.479.479 0 0 0-.365.165.552.552 0 0 0-.105.176.614.614 0 0 0-.035.206m-.497 0a1.03 1.03 0 0 1 .287-.71.982.982 0 0 1 .715-.297.978.978 0 0 1 .921.618c.05.12.077.25.077.39a.997.997 0 0 1-.287.707.938.938 0 0 1-.316.21c-.121.05-.254.075-.395.075-.145 0-.278-.024-.4-.075a.921.921 0 0 1-.315-.21.982.982 0 0 1-.287-.707"/>
    </g>
</svg>
