<svg width="189" height="37" viewBox="0 0 189 37" xmlns="http://www.w3.org/2000/svg">
  <g fill-rule="evenodd">
    <path d="M175.104 25.87c.178 0 .308-.042.39-.128.08-.086.12-.2.12-.344 0-.15-.043-.26-.13-.335-.086-.075-.225-.112-.415-.112h-.537v.92h.57zm-1.15-1.4h1.176c.19 0 .353.027.488.08.136.056.248.126.338.212.09.086.154.182.194.288.04.106.06.21.06.314 0 .195-.05.37-.146.528-.1.158-.25.277-.45.357l.743 1.254h-.656l-.683-1.178h-.484v1.178h-.58V24.47zM175 28.424c.34 0 .654-.062.942-.185.29-.124.537-.294.748-.512.21-.218.375-.475.493-.77.12-.295.177-.61.177-.95 0-.337-.058-.654-.177-.95-.118-.295-.282-.55-.493-.77-.21-.216-.46-.388-.748-.514s-.6-.19-.933-.19c-.342 0-.656.064-.944.19-.288.126-.54.298-.752.515-.213.217-.38.473-.498.768-.118.296-.177.613-.177.95 0 .34.058.655.176.95.12.295.283.552.494.77.21.218.46.388.747.51.288.124.603.186.943.186zm0 .576c-.42 0-.814-.077-1.18-.232-.367-.155-.683-.37-.95-.64-.27-.273-.48-.59-.637-.955-.155-.364-.233-.755-.233-1.173 0-.418.078-.81.233-1.173.156-.364.368-.68.636-.95.267-.27.583-.483.95-.64.366-.158.762-.237 1.19-.237.42 0 .812.08 1.175.236.363.158.678.37.946.64.27.27.48.587.637.95.155.364.233.756.233 1.174 0 .418-.078.81-.233 1.173-.156.364-.368.682-.636.955-.267.27-.584.485-.95.64-.366.155-.76.232-1.18.232z"/>

      <path d="M13.528 28.615c.744 0 1.467-.282 2.168-.845.7-.562 1.362-1.328 1.986-2.3.624-.97 1.2-2.106 1.724-3.41.525-1.3.974-2.69 1.347-4.168l1.18-9.5h-.59c-1.663 0-3.18.377-4.547 1.126-1.37.75-2.545 1.77-3.53 3.062-.985 1.29-1.746 2.79-2.282 4.5-.537 1.71-.805 3.537-.805 5.478 0 1.103.086 2.04.262 2.813.175.774.41 1.397.706 1.87.295.476.645.823 1.05 1.043.405.22.85.332 1.33.332zM28.5 36.193h-5.45c-.634 0-1.165-.083-1.592-.248-.426-.165-.766-.39-1.017-.678-.252-.287-.427-.63-.525-1.026-.1-.396-.148-.827-.148-1.29V30.5c-1.4 1.943-2.955 3.465-4.662 4.568-1.708 1.104-3.59 1.655-5.648 1.655-1.226 0-2.408-.248-3.546-.745-1.137-.496-2.145-1.246-3.02-2.25-.876-1.004-1.577-2.284-2.102-3.84C.262 28.334 0 26.497 0 24.38c0-3.11.563-6.06 1.692-8.853 1.127-2.79 2.703-5.234 4.727-7.33 2.024-2.096 4.427-3.762 7.207-4.998 2.78-1.235 5.833-1.853 9.16-1.853 1.62 0 3.263.11 4.927.33 1.663.222 3.305.62 4.925 1.192L28.5 36.193zM58.933 32.556c-1.022.83-2.077 1.497-3.166 2-1.09.504-2.25.87-3.483 1.1-1.234.23-2.595.344-4.084.344-2.022 0-3.844-.34-5.466-1.017-1.623-.677-3.006-1.64-4.15-2.887-1.145-1.246-2.028-2.755-2.65-4.526C35.31 25.798 35 23.81 35 21.6c0-2.777.46-5.413 1.384-7.906.92-2.493 2.21-4.68 3.867-6.56 1.656-1.88 3.617-3.373 5.884-4.478C48.4 1.553 50.89 1 53.6 1c2.31 0 4.294.39 5.95 1.164 1.655.777 3.138 1.996 4.45 3.658l-3.334 3.772c-.244.24-.522.454-.833.64-.312.186-.655.278-1.033.278-.445 0-.816-.092-1.117-.278-.3-.186-.628-.383-.983-.59-.356-.21-.79-.405-1.3-.59-.51-.187-1.178-.28-2-.28-1.022 0-2.016.29-2.983.87-.967.58-1.83 1.415-2.584 2.51-.755 1.092-1.36 2.437-1.816 4.033-.456 1.597-.684 3.412-.684 5.445 0 1.138.134 2.127.4 2.97.268.84.633 1.54 1.1 2.098.467.558 1.012.98 1.633 1.263.623.285 1.29.426 2 .426 1.068 0 1.928-.148 2.584-.443.655-.296 1.228-.618 1.716-.968.49-.35.944-.673 1.368-.97.42-.294.933-.442 1.533-.442.333 0 .66.078.983.23.322.154.594.36.817.624l2.666 3.083c-1.11 1.203-2.178 2.22-3.2 3.05M82 7.856c-1.693 0-3.176.672-4.45 2.017-1.275 1.345-2.23 3.188-2.87 5.527 2.133-.328 3.86-.672 5.177-1.033 1.32-.36 2.34-.755 3.066-1.18.726-.427 1.214-.887 1.467-1.38.253-.49.38-1.02.38-1.59 0-.568-.22-1.103-.66-1.607-.44-.503-1.143-.754-2.11-.754m12 1.968c0 1.553-.308 2.974-.923 4.264-.616 1.29-1.687 2.433-3.215 3.428-1.527.995-3.582 1.843-6.165 2.542-2.582.7-5.83 1.247-9.74 1.64.044 2.318.554 4.013 1.532 5.085.977 1.07 2.422 1.606 4.334 1.606.9 0 1.68-.077 2.34-.23.66-.153 1.238-.35 1.73-.59.496-.24.94-.492 1.336-.755l1.138-.754c.363-.24.742-.436 1.137-.59.397-.152.846-.23 1.352-.23.33 0 .648.083.956.247.308.164.582.377.824.64l2.638 3.05c-1.21 1.18-2.39 2.203-3.545 3.067-1.153.864-2.34 1.574-3.56 2.133-1.22.557-2.516.967-3.89 1.23-1.374.262-2.873.393-4.5.393-2.022 0-3.88-.344-5.57-1.033-1.694-.69-3.15-1.662-4.37-2.92-1.218-1.257-2.164-2.77-2.834-4.543-.67-1.77-1.006-3.74-1.006-5.904 0-1.815.203-3.586.61-5.315.407-1.727.99-3.35 1.747-4.87.76-1.52 1.687-2.92 2.786-4.2 1.1-1.278 2.335-2.377 3.71-3.295 1.372-.92 2.878-1.635 4.516-2.15 1.635-.513 3.377-.77 5.223-.77 1.824 0 3.446.262 4.863.787 1.418.525 2.61 1.21 3.577 2.05.967.842 1.703 1.788 2.21 2.838.504 1.05.757 2.1.757 3.15"/>

      <path d="M131.757 11.558c1.108 0 2.054-.4 2.054-1.824 0-.786-.512-1.105-1.472-1.105h-1.135l-.392 2.928h.947zM135.514 17h-2.243l-1.364-3.88h-1.31l-.528 3.88H128l1.365-10h3.716c2.19 0 2.92 1.188 2.92 2.486 0 1.644-.77 2.556-2.094 3.12L135.514 17zM140 17l1.274-10H147l-.202 1.685h-3.796l-.315 2.5h3.57l-.216 1.658h-3.568l-.315 2.472h4.023L145.966 17M154.397 17l-2.627-7.17-.95 7.17H149l1.314-10h2.393l2.55 7.182.948-7.182H158l-1.3 10M163.72 17l1.123-8.274H162L162.23 7H170l-.243 1.726h-2.83L165.804 17M175.488 8.934h-.027l-1.696 3.936h2.386l-.662-3.936zM176.985 7L179 17h-2.187l-.45-2.486h-3.142L172.148 17H170l4.453-10h2.532zM182.365 16.856l1.333-9.822h2.03l-1.094 8.113h4.036l-.237 1.71"/>
  </g>
  <g>
    <path d="M136.455 29.943C135.85 32.24 133.99 33 132.035 33c-2.796 0-4.035-1.642-4.035-4.02 0-3.59 1.997-5.98 5.453-5.98 2.286 0 3.663 1.242 3.54 3.55l-1.956.175c.07-1.335-.44-2.122-1.75-2.122-1.858 0-3.07 1.468-3.07 4.298 0 1.737.716 2.497 2.066 2.497 1.336 0 1.928-.707 2.313-1.748l1.86.293zM144.487 24.934h-.026l-1.696 3.936h2.386l-.663-3.936zM145.985 23L148 33h-2.187l-.45-2.486h-3.143L141.147 33H139l4.453-10h2.532zM154.757 27.558c1.108 0 2.054-.4 2.054-1.823 0-.787-.512-1.105-1.472-1.105h-1.135l-.392 2.928h.947zM158.514 33h-2.243l-1.364-3.88h-1.31l-.528 3.88H151l1.365-10h3.716c2.19 0 2.92 1.188 2.92 2.486 0 1.644-.77 2.556-2.094 3.122L158.514 33zM168.054 26.018c.027-.882-.244-1.51-1.384-1.51-1.087 0-1.602.508-1.602 1.242 0 .695.65.948 1.44 1.215 1.26.414 3.04.762 3.04 2.79 0 2.257-1.955 3.245-4.005 3.245-1.792 0-3.557-.6-3.543-2.99l1.94-.267c.042.88.273 1.735 1.698 1.735.937 0 1.806-.347 1.806-1.388 0-.788-.788-1.042-1.698-1.31-1.276-.373-2.796-.786-2.796-2.682 0-1.95 1.765-3.098 3.896-3.098 1.778 0 3.244.614 3.15 2.804l-1.942.214z"/>

  <path d="M110.295 18.577l-.42-.432-1.11-1.14-.71-.728-.948-.973-1.825-1.874c-.537-.55-1.074-1.103-1.61-1.654l-1.174-1.204c-1.082-1.112-2.115-2.267-2.913-3.616-.257-.435-.35-.97-.358-1.475-.007-.39.076-.777.246-1.16.173-.38.408-.703.71-.97l3.532-3.196 3.153 3.238 14.79 15.185-14.79 15.185L103.715 37l-3.533-3.195c-.3-.267-.536-.59-.71-.97-.17-.383-.252-.77-.245-1.162.008-.505.1-1.04.358-1.475.798-1.348 1.83-2.504 2.913-3.615l7.797-8.006z" fill="#F7C514"/><path d="M121.657 18.468L103.715.154l-3.533 3.176c-.562.506-.97 1.338-.956 2.12.01.5.102 1.033.36 1.465.797 1.34 1.833 2.487 2.915 3.592l1.174 1.197c.4.407 7.002 7.154 10.37 10.584 0 0 2.046 1.862-.422 4.382l8.035-8.202z" fill="#FD0"/>
  </g>
</svg>
