<svg xmlns="http://www.w3.org/2000/svg" xmlns:xlink="http://www.w3.org/1999/xlink" width="101" height="67" viewBox="0 0 101 67">
    <defs>
        <path id="a" d="M0 65h100V1H0z"/>
    </defs>
    <g fill="none" fill-rule="evenodd" transform="translate(1 2)">
        <path fill="#E61E25" d="M86.52 62H23.481C17.141 62 12 56.937 12 50.69V12.31C12 6.062 17.14 1 23.481 1H86.52C92.86 1 98 6.063 98 12.31v38.38C98 56.938 92.86 62 86.52 62z" opacity=".265"/>
        <path stroke="#E61E25" stroke-width="2.5" d="M86.533 63H12.467C6.134 63 1 57.897 1 51.604V11.396C1 5.103 6.134 0 12.467 0h74.066C92.866 0 98 5.103 98 11.396v40.208C98 57.897 92.866 63 86.533 63z"/>
        <mask id="b" fill="#fff">
            <use xlink:href="#a"/>
        </mask>
        <path fill="#FFF" d="M1 22h97v-9H1z" mask="url(#b)"/>
        <path stroke="#E61E25" stroke-width="2.5" d="M1 22h97v-9H1z" mask="url(#b)"/>
        <path fill="#FEFEFE" d="M63 33.7L57.3 28l-6.8 6.8-6.8-6.8-5.7 5.7 6.8 6.8-6.8 6.8 5.7 5.7 6.8-6.8 6.8 6.8 5.7-5.7-6.801-6.8z" mask="url(#b)"/>
        <path stroke="#E61E25" stroke-width="2.5" d="M63 33.7L57.3 28l-6.8 6.8-6.8-6.8-5.7 5.7 6.8 6.8-6.8 6.8 5.7 5.7 6.8-6.8 6.8 6.8 5.7-5.7-6.801-6.8z" mask="url(#b)"/>
    </g>
</svg>
