<?xml version="1.0" encoding="utf-8"?>
<!-- Generator: Adobe Illustrator 18.1.1, SVG Export Plug-In . SVG Version: 6.00 Build 0)  -->
<svg version="1.1" id="Layer_1" xmlns="http://www.w3.org/2000/svg" xmlns:xlink="http://www.w3.org/1999/xlink" x="0px" y="0px"
	 viewBox="0 0 22 22" enable-background="new 0 0 22 22" xml:space="preserve">
<g>
	<polygon points="14.4,0 14.4,2.4 17.7,2.4 10.3,9.9 12,11.6 19.6,4 19.6,7.7 22,7.7 22,0 	"/>
	<polygon points="19.6,19.6 2.4,19.6 2.4,2.4 11.2,2.4 11.2,0 0,0 0,22 22,22 22,11 19.6,11 	"/>
</g>
</svg>
