<svg xmlns="http://www.w3.org/2000/svg" width="581" height="1227" viewBox="0 0 581 1227">
    <g fill="#F3F5F6" fill-rule="evenodd">
        <path d="M-36.7 1262c-35.47-34.9-70.679-70.12-106.469-104.623-44.22-42.634-51.69-93.515-17.161-146.316 21.76-33.267 45.954-65.202 72.26-94.305C.888 818.344 91.278 721.46 181.117 624c7.43 5.875 15.658 10.872 22.156 17.783 29.374 31.23 57.482 63.909 87.516 94.35 35.317 35.8 56.072 74.91 34.328 128.247-.87 2.143.54 5.389.886 8.12-2.631 2.59-5.118 5.573-7.6 8.544-95.111 103.112-190.264 206.169-285.298 309.359-21.764 23.636-43.112 47.72-64.655 71.597h-5.15z"/>
        <path d="M341.975 861c-.363-2.734-1.827-5.977-.919-8.122 22.559-53.396 1.026-92.546-35.622-128.385-31.166-30.48-60.34-63.187-90.816-94.456-6.749-6.918-15.281-11.915-22.991-17.802-6.225-7.747-11.964-15.998-18.739-23.174C75.265 485.699-22.94 382.936-119.852 278.845c-19.674-21.135-36.264-46.034-51.316-71.146-23.857-39.812-18.674-91.084 13.668-123.26C-116.973 44.12-74.025 6.475-31.398-33c203.81 215.838 406.415 430.405 611.514 647.61 1.026-4.907 1.223-2.672.25-1.664C500.964 695.694 421.465 778.342 341.977 861"/>
    </g>
</svg>
