<svg xmlns="http://www.w3.org/2000/svg" xmlns:xlink="http://www.w3.org/1999/xlink" width="159" height="142" viewBox="0 0 159 142">
    <defs>
        <path id="a" d="M.674 71.001c0 38.935 31.342 70.499 70.002 70.499 38.659 0 69.998-31.564 69.998-70.499C140.674 32.064 109.335.5 70.676.5 32.016.5.674 32.064.674 71.001z"/>
    </defs>
    <g fill="none" fill-rule="evenodd">
        <g transform="translate(7)">
            <mask id="b" fill="#fff">
                <use xlink:href="#a"/>
            </mask>
            <path fill="#DAE8F3" d="M-4.326 146.5h150v-151h-150z" mask="url(#b)"/>
        </g>
        <path fill="#FEFEFE" d="M20.857 29.296c-6.518 0-12.198 3.515-15.296 8.743h138.623a39.148 39.148 0 0 0-24.713-8.743H20.856zM137.07 60.49H1.344v14.37c0 10.918 8.827 19.77 19.734 19.823.002-6.97 5.654-12.62 12.624-12.62 6.973 0 12.625 5.652 12.625 12.625h62.693c0-6.973 5.653-12.625 12.625-12.625 6.973 0 12.625 5.652 12.625 12.625h5.544c9.53 0 17.256-7.726 17.256-17.257-16 0-20-16.94-20-16.94"/>
        <path fill="#7EB0D9" d="M28.518 81.798c-6.8 0-12.329 5.38-12.599 12.115 1.39.315 2.828.498 4.31.505.002-6.23 4.521-11.392 10.457-12.421a12.694 12.694 0 0 0-2.168-.2M116.461 81.798c-6.973 0-12.625 5.652-12.625 12.625h4.336c0-6.232 4.519-11.396 10.457-12.426a12.703 12.703 0 0 0-2.168-.2M137.222 60.226h-4.336s4 16.94 20 16.94c0 9.53-7.726 17.257-17.256 17.257h4.335c9.53 0 17.257-7.726 17.257-17.256-16 0-20-16.941-20-16.941"/>
        <path stroke="#1262AD" stroke-linecap="round" stroke-width="2" d="M109.02 94.688H46.329"/>
        <path fill="#7EB0D9" d="M142.957 38.43a39.155 39.155 0 0 0-24.712-8.742h-8.802a39.151 39.151 0 0 1 24.712 8.743h8.802z"/>
        <path stroke="#1262AD" stroke-linecap="round" stroke-width="2" d="M134.27 94.688h5.015c9.823 0 17.786-7.964 17.786-17.787v-8.28c0-21.719-17.607-39.326-39.325-39.326H25.733c-13.47 0-24.388 10.92-24.388 24.388v23.218c0 9.824 8.964 17.787 18.786 17.787M142.459 38.039H8.07"/>
        <path stroke="#1262AD" stroke-linecap="round" stroke-width="2" d="M1.345 59.96H137.07s4 16.94 20 16.94M123.07 38.039v44.024M92.07 38.039V59.96M61.483 38.039V93.02M30.57 38.039V59.96M134.27 94.688c0 6.972-5.652 12.624-12.624 12.624-6.973 0-12.625-5.651-12.625-12.624 0-6.974 5.652-12.626 12.625-12.626 6.972 0 12.625 5.653 12.625 12.626zM46.327 94.688c0 6.972-5.652 12.624-12.625 12.624-6.972 0-12.625-5.651-12.625-12.624 0-6.974 5.653-12.626 12.625-12.626 6.973 0 12.625 5.653 12.625 12.626z"/>
        <path fill="#FFF" stroke="#1262AD" stroke-linecap="round" stroke-width="2" d="M128.56 94.688a6.916 6.916 0 1 1-13.83-.002 6.916 6.916 0 0 1 13.83.001zM40.618 94.688a6.915 6.915 0 1 1-13.83-.001 6.915 6.915 0 0 1 13.83 0z"/>
    </g>
</svg>
