<svg xmlns="http://www.w3.org/2000/svg" xmlns:xlink="http://www.w3.org/1999/xlink" width="175" height="141" viewBox="0 0 175 141">
    <defs>
        <path id="a" d="M0 70.5C0 109.437 31.342 141 70.001 141 108.661 141 140 109.437 140 70.5 140 31.564 108.661 0 70.001 0 31.342 0 0 31.564 0 70.5z"/>
    </defs>
    <g fill="none" fill-rule="evenodd">
        <g transform="translate(17)">
            <mask id="b" fill="#fff">
                <use xlink:href="#a"/>
            </mask>
            <path fill="#DAE8F2" d="M-5 146h150V-5H-5z" mask="url(#b)"/>
        </g>
        <path fill="#FEFEFE" d="M139.223 72.917c0 29.087-23.58 52.667-52.667 52.667-29.087 0-52.666-23.58-52.666-52.667 0-29.087 23.579-52.667 52.666-52.667 27.689 0 50.388 21.368 52.506 48.513.106 1.37.16 2.756.16 4.154"/>
        <g fill="#7EB0D9">
            <path d="M54.707 70.92l4.652 1.497c0-12.387 7.952-22.91 19.027-26.762-12.624 2.026-22.458 12.39-23.679 25.264M87.692 30.583c-4.386 0-8.608.685-12.58 1.937a41.985 41.985 0 0 1 7.796-.729c21.584 0 39.35 16.346 41.595 37.333l-8.494 2.883c.002.137.016.272.016.41l13.261-4.5c-2.245-20.989-20.01-37.334-41.594-37.334"/>
        </g>
        <path fill="#7EB0D9" d="M138.94 68.263C136.82 41.117 114.124 19.75 86.433 19.75c-.6 0-1.197.026-1.794.046 26.828.945 48.552 21.94 50.622 48.467.107 1.37.16 2.756.16 4.154 0 28.47-22.592 51.649-50.826 52.62.612.02 1.222.046 1.838.046 29.087 0 52.668-23.58 52.668-52.666 0-1.398-.055-2.783-.161-4.154"/>
        <path fill="#7EB0D9" d="M103.817 94.542a3.622 3.622 0 0 1 3.622 3.622v5.923c0 2-1.62 3.622-3.622 3.622h4.75a3.622 3.622 0 0 0 3.622-3.622v-5.923c0-2-1.62-3.622-3.622-3.622h-4.75z"/>
        <path fill="#1262AD" d="M86.875 20.75c-28.489 0-51.667 23.178-51.667 51.667 0 28.488 23.178 51.666 51.667 51.666s51.667-23.178 51.667-51.666c0-1.358-.054-2.729-.159-4.076-2.081-26.687-24.706-47.59-51.508-47.59m0 105.332c-29.592 0-53.667-24.075-53.667-53.666 0-29.592 24.075-53.667 53.667-53.667 27.839 0 51.34 21.714 53.502 49.435a54.68 54.68 0 0 1 .165 4.232c0 29.591-24.075 53.666-53.667 53.666"/>
        <path fill="#1262AD" d="M173.042 68.917H139.38a1 1 0 1 1 0-2h33.662a1 1 0 1 1 0 2M34.208 68.917H1.38a1 1 0 1 1 0-2h32.828a1 1 0 1 1 0 2M46.342 67.438l11.23 3.617c.716-15.544 13.586-27.971 29.303-27.971 15.217 0 28.062 11.869 29.243 27.02.025.308.043.618.058.928l11.206-3.803c-2.575-20.378-19.851-35.645-40.507-35.645-20.766 0-38.051 15.356-40.533 35.854zm67.866 6.375v-1.396c0-.72-.028-1.445-.084-2.157-1.1-14.118-13.07-25.176-27.25-25.176-15.07 0-27.332 12.26-27.332 27.333v1.373l-15.36-4.946.08-.805C46.49 46.116 64.81 29.584 86.876 29.584c21.948 0 40.257 16.433 42.588 38.226l.085.795-15.34 5.208z"/>
        <path fill="#7EB0D9" d="M83.993 78.313a5.123 5.123 0 0 1-1.875-7 5.123 5.123 0 0 1 7-1.876 5.124 5.124 0 1 1-5.125 8.876"/>
        <path fill="#1262AD" d="M86.872 69.75a4.13 4.13 0 0 0-4.125 4.125A4.13 4.13 0 0 0 86.872 78a4.13 4.13 0 0 0 4.125-4.125 4.13 4.13 0 0 0-4.125-4.125m0 10.25a6.132 6.132 0 0 1-6.125-6.125 6.132 6.132 0 0 1 6.125-6.125 6.132 6.132 0 0 1 6.125 6.125A6.132 6.132 0 0 1 86.872 80"/>
        <path fill="#1262AD" d="M91.996 73.434a1.001 1.001 0 0 1-.254-1.967l14.655-3.868a1 1 0 0 1 .51 1.934L92.252 73.4a.98.98 0 0 1-.256.034M65.518 95.542a2.625 2.625 0 0 0-2.622 2.622v5.923a2.625 2.625 0 0 0 2.622 2.622h42.708a2.625 2.625 0 0 0 2.622-2.622v-5.923a2.625 2.625 0 0 0-2.622-2.622H65.518zm42.708 13.167H65.518a4.627 4.627 0 0 1-4.622-4.622v-5.923a4.627 4.627 0 0 1 4.622-4.622h42.708a4.627 4.627 0 0 1 4.622 4.622v5.923a4.627 4.627 0 0 1-4.622 4.622zM86.875 36.917a1 1 0 0 1-1-1v-5.333a1 1 0 1 1 2 0v5.333a1 1 0 0 1-1 1M65.856 44.136a.998.998 0 0 1-.834-.446l-2.959-4.437a1 1 0 1 1 1.664-1.11l2.96 4.437a1 1 0 0 1-.831 1.556M53.792 58.58c-.118 0-.237-.02-.354-.065l-4.988-1.89a1 1 0 0 1 .709-1.87l4.987 1.89a1.001 1.001 0 0 1-.354 1.935M108.003 44.136a1 1 0 0 1-.831-1.555l2.958-4.437a.999.999 0 1 1 1.664 1.109l-2.958 4.438a.998.998 0 0 1-.833.444M120.066 58.58a1.001 1.001 0 0 1-.354-1.936l4.987-1.89a1 1 0 0 1 .71 1.87l-4.989 1.891a1.002 1.002 0 0 1-.354.065"/>
        <path fill="#1262AD" d="M25.883 62.271a1 1 0 0 1-.985-1.178C30.288 31.35 56.643 9.554 86.722 9.554c.76 0 1.52.014 2.286.042 28.035 1.028 52.204 20.772 58.773 48.014a.999.999 0 1 1-1.943.47c-6.361-26.375-29.761-45.49-56.904-46.485C58.93 10.477 32.217 31.926 26.866 61.45a.999.999 0 0 1-.983.822"/>
        <path fill="#1262AD" d="M147.642 60.79l-4.931-2.82a1.002 1.002 0 0 1 .993-1.736l3.194 1.827 1.826-3.194a1 1 0 1 1 1.736.992l-2.818 4.93zM70.491 98.783a.617.617 0 0 0-.19.452v2.492a.95.95 0 0 1-.29.705.99.99 0 0 1-1.41-.003.955.955 0 0 1-.293-.702v-2.492a.617.617 0 0 0-.19-.453.653.653 0 0 0-.902.003.625.625 0 0 0-.184.45v2.492c0 .626.224 1.168.664 1.608.441.441.983.665 1.608.665.626 0 1.168-.225 1.61-.669.44-.443.664-.983.664-1.604v-2.492a.629.629 0 0 0-.185-.45.653.653 0 0 0-.902-.002M76.001 98.856a.616.616 0 0 0-.185.442v2.111l-1.807-2.502a.62.62 0 0 0-.409-.252.681.681 0 0 0-.489.124.562.562 0 0 0-.241.512v4.074c0 .173.064.328.186.45a.635.635 0 0 0 1.077-.45v-2.133l1.758 2.43.076.11c.127.15.289.228.471.228a.631.631 0 0 0 .45-.182.616.616 0 0 0 .192-.453v-4.067a.605.605 0 0 0-.191-.444.634.634 0 0 0-.888.002M81.324 102.723h-1.647v-3.488a.618.618 0 0 0-.192-.453.653.653 0 0 0-.9.003.629.629 0 0 0-.186.45v4.13c0 .172.064.327.187.45a.622.622 0 0 0 .45.185h2.288a.625.625 0 0 0 .447-.19.629.629 0 0 0-.002-.899.62.62 0 0 0-.445-.188M82.714 98.786a.625.625 0 0 0-.184.449v4.13c0 .173.064.329.186.45.12.12.276.185.449.185a.634.634 0 0 0 .45-.182.618.618 0 0 0 .192-.452v-4.131a.616.616 0 0 0-.192-.452.652.652 0 0 0-.901.003M88.837 98.6h-.017c-.21 0-.388.09-.518.265l-1.19 1.651-1.183-1.642c-.117-.179-.296-.274-.538-.274a.626.626 0 0 0-.451.186.62.62 0 0 0-.185.45v4.13c0 .171.063.326.186.45a.653.653 0 0 0 .9.002.617.617 0 0 0 .19-.453v-2.168l.55.77a.664.664 0 0 0 1.057-.003l.554-.77v2.171c0 .174.065.33.185.45a.62.62 0 0 0 .45.185.628.628 0 0 0 .452-.189.615.615 0 0 0 .19-.446v-4.13a.611.611 0 0 0-.192-.446.666.666 0 0 0-.44-.189M91.036 98.786a.625.625 0 0 0-.184.449v4.13c0 .173.064.329.186.45.121.12.276.185.45.185a.634.634 0 0 0 .45-.182.618.618 0 0 0 .191-.452v-4.131a.616.616 0 0 0-.192-.452.652.652 0 0 0-.9.003M96.324 98.6h-2.988a.621.621 0 0 0-.45.186.62.62 0 0 0-.186.45c0 .17.062.325.183.45a.614.614 0 0 0 .453.191h.855v3.488c0 .174.065.33.185.45a.62.62 0 0 0 .45.185.626.626 0 0 0 .451-.186.625.625 0 0 0 .185-.449v-3.488h.862a.62.62 0 0 0 .446-.189.628.628 0 0 0 .19-.453.623.623 0 0 0-.187-.45.622.622 0 0 0-.449-.185M100.679 99.877a.624.624 0 0 0 .447-.189.632.632 0 0 0-.004-.906.627.627 0 0 0-.443-.182h-2.29a.626.626 0 0 0-.45.186.625.625 0 0 0-.185.45v4.13c0 .171.064.326.187.45a.62.62 0 0 0 .408.183l2.33.001a.624.624 0 0 0 .447-.189.633.633 0 0 0-.002-.9.62.62 0 0 0-.445-.188h-1.647v-.788h1.38c.174 0 .33-.066.454-.192a.633.633 0 0 0-.007-.896.619.619 0 0 0-.447-.189h-1.38v-.78h1.647zM104.923 101.3c0 .396-.136.724-.414 1.003a1.373 1.373 0 0 1-1.002.42h-.185v-2.846h.185c.395 0 .724.136 1 .417.28.281.416.61.416 1.006m.49-1.909h-.001a2.597 2.597 0 0 0-1.905-.791h-.826a.626.626 0 0 0-.451.186.625.625 0 0 0-.185.449v4.13c0 .172.064.328.187.451.12.12.276.184.449.184h.826a2.6 2.6 0 0 0 1.906-.791 2.62 2.62 0 0 0 .786-1.909c0-.741-.264-1.383-.786-1.909"/>
    </g>
</svg>
