<svg width="374" height="393" viewBox="0 0 166 133" xmlns="http://www.w3.org/2000/svg" xmlns:xlink="http://www.w3.org/1999/xlink">
  <defs>
    <path d="M0 27.94C0 12.51 14.81 0 33.1 0s33 12.51 33 27.94c0 0-17.92-10.77-33.39-3.91C10.52 33.9 0 27.94 0 27.94z" id="SunMask"/>
    <clipPath id="clipPath"><use xlink:href="#SunMask"  overflow="visible" /></clipPath>
  </defs>
  <g class="experience-brand memory-making">
    <g id="Sun" clip-path="url(#clipPath)" transform="translate(49 36)">
      <mask id="mask-2" fill="#fff">
        <use xlink:href="#SunMask"/>
      </mask>
      <path id="SunFill" class="memory-making__sun-fill" fill="#fff" mask="url(#mask-2)" d="M0 0h66.1v29.72H0z"/>
    </g>
    <g id="Memory" class="memory-making__memory" fill="#fff">
      <path d="M31.783 56.79l-1.18 2.49-22.84-14.25 22.27-.98-8.14-19.12 23.07 14.91-1.99 2.04-13.69-8.13 5.29 13.83-16.11.45"/>
      <path d="M49.59 32.934l-5.685-7.34 7.228-5.094-1.4-2.81-7.756 5.413-4.772-6.16 9.608-6.263-1.4-2.8-10.13 6.58-2.86 1.86 16.39 20.76 1.84-1.213 9.1-5.107-1.49-2.67-8.674 4.844z"/>
      <path d="M66.093 28.78l-3.42.95-4-27.69 15.03 16.47L83.153 0l3.49 26.91-3.46-.25-2.05-15.34-7.22 12.94-10.68-12.08"/>
      <path d="M105.993 3.26c-6-1.81-12.71 2.75-15 10.2-2.29 7.45.8 15 6.81 16.77 6.01 1.77 12.7-2.75 15-10.2 2.3-7.45-.8-14.95-6.81-16.77zm4 15.9c-1.72 5.68-6.7 9.2-11.13 7.86-4.43-1.34-6.63-7-4.92-12.71 1.71-5.71 6.7-9.2 11.13-7.86 4.43 1.34 6.59 7.04 4.87 12.72l.05-.01z"/>
      <path d="M126.695 14.55c.94.546 7.137 3.906 9.448 7.71 2.43 3.97.13 7.5-2.11 9.37-1.824 1.523-4.956 2.237-8.264.963L124.722 47.1l-3.11-3.09.782-13.374c-1.582-1.14-2.638-2.085-3.303-2.752l-7 8.006-3.01-1.74 17.477-19.61.033-.05c.002 0 .004.003.006.004l.003-.004.092.06zm1.748 15.71l.03.03c1.41.153 2.81-.373 3.77-1.417.96-1.043 1.368-2.48 1.1-3.873-.37-3-6.87-7-6.87-7l-5.43 7.47s4.84 4.49 7.4 4.79z"/>
      <path d="M142.525 48.164l4.778-12.594-2.5-3.77-6.59 16.477-9.1 5.033 1.91 3.54 8.913-5.082 16.917 2.682-1.95-4.08-12.378-2.206z"/>
    </g>
    <g id="Making" class="memory-making__making" fill="none" stroke="#FFF" stroke-linecap="round" stroke-linejoin="round">
      <path d="M4.633 96c-1.07.44-2 1.48-2.47 3.61-1.69 7.94 10.11 9.49 19.31 2.66 6.27-4.69 23.55-25.27 21.58-30.11-1.97-4.84-6.8-.08-7.85 8.56-1.05 8.64 3 25.28 3 25.28l22.81-31.73s-13.16 26.22-4.57 37c8.59 10.78 18.76 1.87 18.76 1.87" stroke-width="3.05"/>
      <path d="M78.683 87.64s-2.38-7.57-8.87-3.23c-6.49 4.34-7.65 15.33-4.43 17.33 3.22 2 9.89-3.33 14.51-17.5 0 0-4.54 16.67-1.8 19.67s5.81-3.73 7.69-9.53c1.88-5.8 9.45-24.05 9.45-24.05" stroke-width="2.92"/>
      <path d="M99.283 84.57c-3.776 4.505-9.53 6.858-15.38 6.29 0 0 2.48.21 5.25 5.37s6.88 10.26 14.06 9.42c7.18-.84 8.2-5.83 8.2-5.83M106.043 83.45s-4.92 9.32-5.47 14.83" stroke-width="2.92"/>
      <path d="M111.473 81.57c-.34.5-4.61 14.33-4.61 14.33s8.86-14.9 13.61-13.73 1.94 6.41.55 12.05c-1.61 6.57 3.43 8.35 7 5M144.473 85.29s-.82-5.29-5.94-4-12.8 11.91-9.82 18.41c2.98 6.5 10.09-.59 10.09-.59" stroke-width="2.92"/>
      <path d="M146.753 81.32s-7 14.9-10.08 23.32-10.94 26.36-24.27 26.36-10.66-12.25-3.36-16.25c7.3-4 16.1 2.67 27.89 3 11.79.33 24.24-2.18 26.87-15.28M108.873 75.74l-.41.96" stroke-width="2.92"/>
    </g>
  </g>
</svg>
