<svg width="374" height="393" viewBox="0 0 374 393">
  <defs>
    <filter x="-6.3%" y="-5.5%" width="112.6%" height="112%" filterUnits="objectBoundingBox" id="filter-1">
      <feOffset dy="2" in="SourceAlpha" result="shadowOffsetOuter1"/>
      <feGaussianBlur stdDeviation="7.5" in="shadowOffsetOuter1" result="shadowBlurOuter1"/>
      <feColorMatrix values="0 0 0 0 0 0 0 0 0 0 0 0 0 0 0 0 0 0 0.168110281 0" in="shadowBlurOuter1" result="shadowMatrixOuter1"/>
      <feMerge>
        <feMergeNode in="shadowMatrixOuter1"/>
        <feMergeNode in="SourceGraphic"/>
      </feMerge>
    </filter>
  </defs>
  <g class="experience-brand snow-shredding">
    <path class="snow-shredding__draw snow-shredding__draw--mountain" id="Mountain" d="M150.498 88.984l.216-.065c2.133-.64 4.753-.903 7.16-1.175L165.27 87c2.64-.27 5.36-.89 7.915-2.067 2.56-1.158 4.93-2.86 6.906-4.702 1.992-1.824 3.713-3.74 5.232-4.884.726-.55 1.467-.94 1.94-1.057.488-.06.56-.006 1 .184.436.19 1.187.657 2.245 1.354 1.073.657 2.458 1.657 4.827 2.207 1.31.19 2.376.368 4.105-.117 2.03-.632 2.696-1.368 3.62-2.06 1.41-1.28 2.386-2.517 3.2-3.66 3.268-4.613 5.54-9.08 7.95-13.383 1.163-2.073 2.415-4.384 3.31-5.307 1.205-1.422 2.997-3.277 4.64-4.945 6.782-6.84 14.13-13.496 21.252-19.808 1.78-1.523 3.622-3.07 5.28-4.26.14-.102.25-.173.366-.25.16.036.322.074.54.137 1.203.29 3.1.834 5.563.798 1.222-.032 2.53-.19 3.75-.566.608-.16 1.233-.398 1.862-.7l.926-.45.625-.373c1.727-1.032 2.72-1.887 3.855-2.803 1.05-.882 2.038-1.743 2.99-2.593 3.732-3.332 7.336-6.7 10.573-8.884.14-.098.252-.153.386-.24.35.498.726 1.062 1.11 1.694 2.23 3.768 4.468 8.577 7.555 13.205 1.708 2.47 3.11 4.328 4.55 6.336 1.43 2.005 2.897 3.983 4.39 5.945 5.957 7.855 11.786 15.807 17.944 23.555l.434.55c1.183 1.488 3.278 2.022 5.07 1.175 2.876-1.36 6.933-2.452 8.94-2.204.405.065.59.087.648.043-.06-.12.276.294.462.468.205.202.475.48.647.583.37.252.814.568 1.13.696.71.362 1.318.56 1.924.75 2.35.664 4.414.865 6.498 1.045 4.133.347 8.168.203 12.184.07 4.012-.142 8.006-.565 11.986-.987l.036-.003c.205-.022.363-.19.366-.398.005-.226-.178-.414-.402-.416-7.903-.112-15.855-.393-23.65-1.56-1.938-.317-3.88-.693-5.686-1.342-.882-.346-1.756-.74-2.26-1.4-.695-.913-1.73-1.41-2.744-1.727-2.07-.502-4.147-.333-6.13.01-1.847.336-3.636.834-5.406 1.464l-16.475-24.246L294.94 19.6c-2.614-4.14-4.565-8.67-6.952-13.073-1.246-2.153-2.513-4.466-4.94-5.978-1.283-.72-2.917-.676-4.206-.197-1.232.488-2.374 1.1-3.426 1.807-4.236 2.797-7.87 6.208-11.61 9.442-1.86 1.607-3.742 3.256-5.714 4.514-1.89 1.297-4.193 1.09-6.567.436-1.202-.272-2.53-.637-3.994-.384-.704.115-1.45.444-1.977.81-.527.362-1.084.702-1.584 1.083-2.03 1.508-3.907 3.137-5.784 4.777-7.422 6.626-14.46 13.62-21.266 20.855-1.683 1.834-3.366 3.643-4.93 5.64-1.566 2.084-2.553 4.367-3.68 6.573-2.197 4.433-4.27 8.947-6.926 13.042-1.374 1.92-2.82 4.312-5.11 3.768-2.22-.425-4.147-2.27-6.723-2.986-1.283-.38-2.74-.287-3.982.206-1.24.512-2.292 1.29-3.246 2.146-1.863 1.752-3.332 3.755-5.015 5.525-3.262 3.657-7.7 6.057-12.517 6.956-2.425.482-4.87.96-7.293 1.517-2.45.613-4.79 1.03-7.275 2.185-.172.082-.262.275-.205.46.06.202.276.32.48.26"/>
    <g class="snow-shredding__draw snow-shredding__draw--slopes" id="Slopes">
      <path id="Slope-1" d="M373.755 195.01c-7.222-3.14-14.905-4.846-22.616-6.202-7.726-1.348-15.54-2.036-23.362-2.5-3.914-.235-7.828-.265-11.745-.308l-5.874.008c-1.978.044-4.033.264-6.056.392-4.133.163-8 .91-11.92 1.56-3.96.58-7.758 1.48-11.6 2.302-30.62 6.856-59.864 16.968-89.14 26.72l-43.64 15.117c-14.483 5.074-29.05 9.942-43.594 14.42-14.59 4.406-29.092 7.966-44.285 9.71-7.528 1.026-15.113 1.584-22.71 1.63-3.8.03-7.598-.112-11.393-.45-3.774-.34-7.618-.85-11.2-2.005l-.09-.03c-.2-.062-.42.036-.502.23-.084.208.014.444.222.53 7.295 2.997 15.072 3.87 22.772 4.508 7.728.552 15.485.422 23.2-.103 15.446-.91 30.734-3.82 45.65-7.81 29.85-8.008 59.01-18.182 88.236-28.04 14.586-5.02 29.16-10.06 43.81-14.875 14.63-4.855 29.348-9.47 44.256-13.344 3.73-.943 7.45-1.967 11.232-2.655 3.767-.767 7.525-1.626 11.347-1.965 1.905-.21 3.796-.517 5.715-.653l5.77-.3c3.85-.15 7.7-.292 11.552-.287 7.7-.05 15.41.212 23.07.96 7.63.79 15.346 1.835 22.598 4.2.197.065.42-.028.506-.223.09-.204-.003-.446-.21-.536"/>
      <path id="Slope-2" d="M367.07 313.668l-.912-1.446-.237-.356-.117-.178-.232-.312c-.458-.57-.652-.743-.988-1.09-2-1.836-3.656-2.77-5.314-3.6-3.31-1.64-6.453-2.56-9.594-3.397-6.227-1.496-12.336-2.145-18.36-2.44-6.02-.275-11.99-.294-17.9-.034l-4.434.19c-1.478.06-3.07.317-4.6.47-3.07.38-6.245.63-9.113 1.3l-8.802 1.754-8.56 2.137c-45.163 12.425-87.94 29.263-131.23 44.724-21.578 7.712-43.294 15.486-65.333 20.24-11.014 2.483-22.386 4.053-33.717 4.748-5.678.294-11.372.31-17.044-.068-5.65-.348-11.423-.96-16.75-2.816l-.077-.027c-.202-.07-.424.03-.508.227-.088.208.01.446.218.534 5.435 2.293 11.164 3.243 16.897 3.972 5.738.677 11.516.923 17.287.9 11.538-.16 23.06-1.19 34.427-3.184 22.735-4.148 44.697-11.36 66.597-18.447 21.887-7.202 43.626-14.82 65.422-22.244 21.804-7.37 43.627-14.79 65.866-20.607 11.087-3.072 22.342-5.32 33.793-5.814 11.435-.47 23.028-.416 34.18 2.008 2.752.685 5.496 1.47 8.02 2.69 1.267.586 2.463 1.337 3.44 2.205.424.37.752 1.043 1.145 1.574.246.608.587 1.19.66 1.83.62 2.56-1.03 5.106-3.118 6.832-2.116 1.794-4.675 3.09-7.286 4.183-10.582 4.313-22.112 5.784-33.516 6.904-11.446 1.14-22.938 2.088-34.348 3.82-5.702.86-11.388 1.908-16.99 3.344-5.6 1.42-11.136 3.213-16.363 5.766-5.197 2.53-10.162 5.917-13.726 10.62-.882 1.17-1.59 2.454-2.393 3.68-.772 1.24-1.245 2.653-1.878 3.976-.877 2.783-1.554 5.785-.924 8.74.467 2.93 1.87 5.732 3.97 7.816 2.022 2.148 4.518 3.824 7.222 4.94 5.355 2.39 11.416 2.908 17.156 1.897.21-.038.36-.232.336-.45-.025-.223-.227-.388-.45-.36l-.044.005c-5.623.627-11.408-.27-16.244-2.83-2.453-1.172-4.637-2.82-6.295-4.782-1.742-1.915-2.734-4.293-2.982-6.69-.633-4.856 2.013-9.765 5.326-13.816 3.296-3.907 7.87-6.75 12.814-8.854 9.905-4.325 21.088-6.31 32.258-7.694 11.224-1.367 22.615-1.97 34.18-2.783 5.793-.432 11.638-.862 17.71-1.842 5.94-.99 11.878-2.38 17.95-4.786 3.028-1.238 6.11-2.665 9.236-5.22.778-.672 1.556-1.44 2.305-2.236.74-1 1.498-1.78 2.096-3.087 1.32-2.253 1.92-5.71 1.278-8.592-.25-1.53-.83-2.703-1.404-3.95"/>
    </g>
    <g class="snow-shredding__draw snow-shredding__draw--text" id="Text">
      <g id="Snow">
        <path d="M105.434 134.53l56.614 78.268.285-.653v1.265L173 209.357V106l-10.667 1.967v84.07l-56.9-78.018v-.932H92V236l13.434-2.756z"/>
        <path d="M227.143 180.032c-17.967.53-33.038-16.295-33.67-37.575-.628-21.282 13.423-38.963 31.387-39.49 17.963-.528 33.037 16.296 33.67 37.576.627 21.282-13.424 38.963-31.387 39.49m-2.664-90.016c-24.288.713-43.294 24.34-42.453 52.777.843 28.433 21.212 50.905 45.5 50.19 24.284-.71 43.29-24.342 42.446-52.778-.84-28.433-21.21-50.905-45.494-50.19"/>
        <path d="M282.248 83.488L271 87.233 287.922 177l11.1-2.32 20.542-38.98 29.213 38.98h9.567L366 77.464 354.072 76l-4.383 81.682-24.538-32.587 8.537-16.196-10.468-.554-4.455 8.27-4.39-5.83-11.435 2.73 10.184 13.588-17.034 31.642z"/>
        <path d="M58.138 243.758c21.797-7.325 29.362-28.982 24.04-49.49-4.84-18.648-23.007-22.73-45.836-34.542-10.625-5.492-14.863-13.875-10.658-27.365 4.21-13.492 18.345-15.44 29.777-8.816 7.648 4.433 6.17 13.092 6.17 13.092l10.658-5.433s-1.15-22.678-24.476-23.51c-23.325-.837-39.388 12.1-36.326 38.543 2.677 23.13 35.944 28.91 46.652 36.234 10.71 7.323 17.49 18.114 13.28 32.765-4.205 14.645-21.308 21.97-33.93 19.657-12.62-2.313-32.218-15.336-22.18-40.625l-9.177-4.3s-10.707 9.077-3.822 31.048c6.883 21.973 34.034 30.066 55.83 22.743"/>
      </g>
      <path id="Shredding" d="M35.657 359.87c11.173-3.762 15.798-16.65 13.946-29.233-1.687-11.45-10.6-14.48-21.538-22.34-5.09-3.657-8.05-8.938-5.42-16.98 2.63-8.04 11.03-10.14 16.48-5.776 3.646 2.92 2.566 8.12 2.566 8.12l5.444-1.528s.314-13.775-11.3-15c-11.617-1.226-20.144 6.113-19.652 22.224.43 14.094 16.817 18.623 21.878 23.39 5.06 4.767 8.02 11.515 5.348 20.257-2.675 8.742-11.504 12.647-17.715 10.858-6.21-1.788-15.488-10.285-9.483-25.29l-4.415-2.89s-5.702 5.17-3.127 18.69c2.575 13.52 15.817 19.262 26.99 15.5M62 277.344V356l5.656-.834v-38.93l24.69-4.247v38.46L98 348.82V271l-5.653.99v34.45l-24.69 4.07v-33.804M261 216.006V296l5-1.66V215M278 212.598V291l5.4-1.626V222.8l32.2 62.602h5.4V207h-5.4v65.5l-31.068-60.974-1.13.206v-.12M174.9 252.834l.004-5.834-22.556 8.545-.252.046v.048l-.096.038.096.382V335L175 326.122v-5.667l-17.502 6.63v-31.237l16.633-6.058v-5.504l-16.632 5.892v-30.596M128.6 291.2c-3.022 5.082-12.032 6.735-13.998 7.04v-27.35c2.682-.432 6.886-.727 10.8.598 6.4 2.17 6.6 13.995 3.2 19.713m7.8-3.744c.75-5.756 1.398-14.984-6-20.155-7.403-5.176-21.402 0-21.402 0V346l5.602-1.632v-36.366l27.4 28.34 5.998-1.928-30.4-30.575c11.47-2.04 17.923-9.622 18.802-16.384M204.31 309.076c-2.644 4.556-9.996 6.348-12.857 6.885v-67.723c3.085-.998 8.076-1.928 11.21 1.072 7.01 6.712 4.958 54.06 1.647 59.766m2.533-65.842c-7.3-5.027-20.843 0-20.843 0V324c18.707-3.863 24.932-10.99 25.908-18.66.73-5.746 3.757-56.03-5.065-62.106M242.31 292.076c-2.644 4.555-9.996 6.348-12.857 6.885v-67.724c3.085-.996 8.076-1.926 11.21 1.072 7.01 6.716 4.958 54.06 1.647 59.768m2.53-65.843c-7.3-5.025-20.84 0-20.84 0V307c18.707-3.863 24.933-10.99 25.908-18.66.73-5.746 3.757-56.032-5.067-62.107M353.426 244.82v5.527h11.33s.012 21.776-.746 24.728c-1.528 5.95-7.958 13.195-18.136 6.84-9.205-5.75-7.552-19.64-7.552-27.446 0-7.807-.547-27.314 2.715-33.658 2.28-4.443 4.934-10.458 15.458-7.86 9.77 2.413 8.262 19.96 8.262 19.96h5.66s2.39-24.873-12.408-26.587c-12.702-1.472-21.255 1.686-24.25 17.295-2.992 15.608-1.5 44.953-.397 50.52 1.75 8.827 11.002 19.3 25.35 16.353 14.35-2.947 12.197-22.554 12.142-29.29-.058-6.734.143-16.382.143-16.382h-17.572z"/>
    </g>
  </g>
</svg>
